Project 1: Wrangling, Exploration, Visualization
…
The partisan_lean_state data have 50 rows/distinct IDs for the 50 states and 3 variables in total. The hate_crimes dataset have 51 rows/distinct IDs, because it includes the District of Columbia as a state. It contains 13 variables in total. I chose a full join, even though I know that there isnt any data on DC in the partisan_lean_state dataset. This means that DC will get NAs for the two variables that the partisan_lean_state adds. I will to keep it, because I might want to do some visualizations only with the data the from hate_crimes and then I might as well keep DC for more data. The joined data contains 51 rows and 15 columns.

Wrangling

mydataset %>% filter(str_detect(pvi_party, "R"))

## # A tibble: 31 x 15
##    state pvi_party pvi_amount state_abbrev median_house_inc share_unemp_seas
##    <chr> <fct>          <dbl> <chr>                   <int>            <dbl>
##  1 Alab R                 27 AL                      42278            0.06 
##  2 Alas R                 15 AK                      67629            0.064
##  3 Ariz R                  9 AZ                      49254            0.063
##  4 Arka R                 24 AR                      44922            0.052
##  5 Flor R                  5 FL                      46140            0.052
##  6 Geor R                 12 GA                      49555            0.058
##  7 Idaho R                 35 ID                      53438            0.042
##  8 Indi R                 18 IN                      48060            0.044
##  9 Iowa  R                  6 IA                      57810            0.036
## 10 Kans R                 23 KS                      53444            0.044
## #  with 21 more rows, and 9 more variables: share_pop_metro <dbl>,
## #   share_pop_hs <dbl>, share_non_citizen <dbl>, share_white_poverty <dbl>,
## #   gini_index <dbl>, share_non_white <dbl>, share_vote_trump <dbl>,
## #   hate_crimes_per_100k_splc <dbl>, avg_hatecrimes_per_100k_fbi <dbl>

mydataset %>% select(state, pvi_party, share_vote_trump)

## # A tibble: 51 x 3
##    state       pvi_party share_vote_trump
##    <chr>       <fct>                <dbl>
##  1 Alabama     R                     0.63
##  2 Alaska      R                     0.53
##  3 Arizona     R                     0.5 
##  4 Arkansas    R                     0.6 
##  5 California  D                     0.33
##  6 Colorado    D                     0.44
##  7 Connecticut D                     0.41
##  8 Delaware    D                     0.42
##  9 Florida     R                     0.49
## 10 Georgia     R                     0.51
## #  with 41 more rows

mydataset %>% arrange(desc(pvi_amount))

## # A tibble: 51 x 15
##    state pvi_party pvi_amount state_abbrev median_house_inc share_unemp_seas
##    <chr> <fct>          <dbl> <chr>                   <int>            <dbl>
##  1 Wyom R                 47 WY                      55690            0.04 
##  2 Hawa D                 36 HI                      71223            0.034
##  3 Idaho R                 35 ID                      53438            0.042
##  4 Okla R                 34 OK                      47199            0.044
##  5 Nort R                 33 ND                      60730            0.028
##  6 Sout R                 31 SD                      53053            0.035
##  7 Utah  R                 31 UT                      63383            0.036
##  8 West R                 30 WV                      39552            0.073
##  9 Mass D                 29 MA                      63151            0.046
## 10 Tenn R                 28 TN                      43716            0.057
## #  with 41 more rows, and 9 more variables: share_pop_metro <dbl>,
## #   share_pop_hs <dbl>, share_non_citizen <dbl>, share_white_poverty <dbl>,
## #   gini_index <dbl>, share_non_white <dbl>, share_vote_trump <dbl>,
## #   hate_crimes_per_100k_splc <dbl>, avg_hatecrimes_per_100k_fbi <dbl>
…
